tpi/rv32i/rv32i_tb.vcd
$date
	Tue Nov 26 23:10:29 2024
$end
$version
	Icarus Verilog
$end
$timescale
	1ps
$end
$scope module rv32i_tb $end
$var parameter 32 ! DURATION $end
$var reg 1 " clk $end
$var reg 32 # pc [31:0] $end
$var reg 1 $ reset $end
$scope module UUT $end
$var wire 1 " clk $end
$var wire 32 % pc [31:0] $end
$var wire 1 $ reset $end
$var wire 1 & zero $end
$var wire 2 ' resSrc [1:0] $end
$var wire 1 ( regWrite $end
$var wire 1 ) pcSrc $end
$var wire 7 * op [6:0] $end
$var wire 1 + memWrite $end
$var wire 2 , inmSrc [1:0] $end
$var wire 1 - f7 $end
$var wire 3 . f3 [2:0] $end
$var wire 1 / branch $end
$var wire 1 0 aluSrc $end
$var wire 3 1 ALUControl [2:0] $end
$scope module controlUnit $end
$var wire 1 ) pcSrc $end
$var wire 1 & zero $end
$var wire 2 2 resSrc [1:0] $end
$var wire 1 ( regWrite $end
$var wire 7 3 op [6:0] $end
$var wire 1 + memWrite $end
$var wire 2 4 inmSrc [1:0] $end
$var wire 1 - f7 $end
$var wire 3 5 f3 [2:0] $end
$var wire 1 / branch $end
$var wire 1 0 aluSrc $end
$var wire 2 6 aluOp [1:0] $end
$var wire 3 7 ALUControl [2:0] $end
$scope module AD $end
$var wire 3 8 ALUControl [2:0] $end
$var wire 1 9 op $end
$var wire 1 - f7 $end
$var wire 3 : f3 [2:0] $end
$var wire 2 ; aluOp [1:0] $end
$var reg 3 < aux_ALUControl [2:0] $end
$upscope $end
$scope module MD $end
$var wire 2 = aluOp [1:0] $end
$var wire 1 / branch $end
$var wire 2 > inmSrc [1:0] $end
$var wire 1 + memWrite $end
$var wire 1 ( regWrite $end
$var wire 2 ? resSrc [1:0] $end
$var wire 7 @ op [6:0] $end
$var wire 1 0 aluSrc $end
$var reg 2 A aux_aluOp [1:0] $end
$var reg 1 0 aux_aluSrc $end
$var reg 1 / aux_branch $end
$var reg 2 B aux_inmSrc [1:0] $end
$var reg 1 C aux_memWrite $end
$var reg 1 D aux_regWrite $end
$var reg 2 E aux_resSrc [1:0] $end
$upscope $end
$upscope $end
$scope module dataPath $end
$var wire 3 F ALUControl [2:0] $end
$var wire 1 0 aluSrc $end
$var wire 1 / branch $end
$var wire 1 " clk $end
$var wire 3 G four [2:0] $end
$var wire 2 H inmSrc [1:0] $end
$var wire 1 + memWrite $end
$var wire 32 I pcInput [31:0] $end
$var wire 1 ) pcSrc $end
$var wire 1 ( regWrite $end
$var wire 2 J resSrc [1:0] $end
$var wire 1 $ reset $end
$var wire 1 & zero $end
$var wire 32 K srcB [31:0] $end
$var wire 32 L result [31:0] $end
$var wire 32 M rd2 [31:0] $end
$var wire 32 N rd1 [31:0] $end
$var wire 32 O pcTarget [31:0] $end
$var wire 32 P pcPlus4 [31:0] $end
$var wire 32 Q pcNext [31:0] $end
$var wire 32 R pc [31:0] $end
$var wire 7 S op [6:0] $end
$var wire 32 T inst [31:0] $end
$var wire 32 U inmExt [31:0] $end
$var wire 1 - f7 $end
$var wire 3 V f3 [2:0] $end
$var wire 1 W aux_zero $end
$var wire 32 X ReadData [31:0] $end
$var wire 32 Y ALUResult [31:0] $end
$scope module ab $end
$var wire 32 Z res [31:0] $end
$var wire 32 [ op2 [31:0] $end
$var wire 32 \ op1 [31:0] $end
$upscope $end
$scope module aluMux $end
$var wire 1 0 sel $end
$var wire 32 ] salMux [31:0] $end
$var wire 32 ^ e2 [31:0] $end
$var wire 32 _ e1 [31:0] $end
$upscope $end
$scope module apc $end
$var wire 32 ` op2 [31:0] $end
$var wire 32 a res [31:0] $end
$var wire 32 b op1 [31:0] $end
$upscope $end
$scope module arithmeticLogicUnit $end
$var wire 3 c ALUControl [2:0] $end
$var wire 32 d result [31:0] $end
$var wire 32 e srcB [31:0] $end
$var wire 1 W zero $end
$var wire 32 f srcA [31:0] $end
$var reg 32 g aux [31:0] $end
$upscope $end
$scope module dataMemory $end
$var wire 32 h addresDM [31:0] $end
$var wire 1 " clk $end
$var wire 32 i rd [31:0] $end
$var wire 1 + we $end
$var wire 32 j wd [31:0] $end
$upscope $end
$scope module instructionMemory $end
$var wire 30 k adressIM [29:0] $end
$var wire 32 l inst [31:0] $end
$upscope $end
$scope module muxPcSrc $end
$var wire 32 m e1 [31:0] $end
$var wire 32 n e2 [31:0] $end
$var wire 1 ) sel $end
$var wire 32 o salMux [31:0] $end
$upscope $end
$scope module programCounter $end
$var wire 1 " clk $end
$var wire 32 p pc [31:0] $end
$var wire 32 q pcInput [31:0] $end
$var wire 32 r pcNext [31:0] $end
$var wire 1 $ reset $end
$var reg 32 s aux_pc [31:0] $end
$upscope $end
$scope module registerBank $end
$var wire 5 t a1 [4:0] $end
$var wire 5 u a2 [4:0] $end
$var wire 5 v a3 [4:0] $end
$var wire 1 " clk $end
$var wire 32 w rd1 [31:0] $end
$var wire 32 x rd2 [31:0] $end
$var wire 1 ( we $end
$var wire 32 y wd3 [31:0] $end
$upscope $end
$scope module resMux $end
$var wire 32 z e1 [31:0] $end
$var wire 32 { e2 [31:0] $end
$var wire 32 | e3 [31:0] $end
$var wire 32 } salMux [31:0] $end
$var wire 2 ~ sel [1:0] $end
$var reg 32 !" aux [31:0] $end
$upscope $end
$scope module signExtension $end
$var wire 25 "" inm [24:0] $end
$var wire 32 #" inmExt [31:0] $end
$var wire 2 $" src [1:0] $end
$var reg 32 %" aux_inm [31:0] $end
$upscope $end
$upscope $end
$upscope $end
$upscope $end
$enddefinitions $end
$comment Show the parameter values. $end
$dumpall
b1100100 !
$end
#0
$dumpvars
bx %"
bx $"
bx #"
bx ""
b0xxxxxxxxxxxxxxxxxxxxxxxxxxxxxxx !"
bx ~
b0xxxxxxxxxxxxxxxxxxxxxxxxxxxxxxx }
bx |
bx {
b0 z
b0xxxxxxxxxxxxxxxxxxxxxxxxxxxxxxx y
bx x
bx w
bx v
bx u
bx t
bx s
bx r
b0 q
bx p
bx o
bx n
bx m
bx l
bx k
bx j
bx i
b0 h
b0 g
bx f
bx e
b0 d
bx c
bx b
bx a
b100 `
bx _
bx ^
bx ]
bx \
bx [
bx Z
b0 Y
bx X
1W
bx V
bx U
bx T
bx S
bx R
bx Q
bx P
bx O
bx N
bx M
b0xxxxxxxxxxxxxxxxxxxxxxxxxxxxxxx L
bx K
bx J
b0 I
bx H
b100 G
bx F
bx E
xD
xC
bx B
bx A
bx @
bx ?
bx >
bx =
bx <
bx ;
bx :
x9
bx 8
bx 7
bx 6
bx 5
bx 4
bx 3
bx 2
bx 1
x0
x/
bx .
x-
bx ,
x+
bx *
x)
x(
bx '
1&
b0 %
1$
b0 #
0"
$end
#50000
0&
0W
b11 Y
b11 d
b11 h
b11 z
b11 g
0)
b11 L
b11 y
b11 }
b11 !"
b11 K
b11 ]
b11 e
b100 Q
b100 o
b100 r
09
b10 6
b10 ;
b10 =
b10 A
0/
b0 '
b0 2
b0 ?
b0 E
b0 J
b0 ~
0+
0C
10
b0 ,
b0 4
b0 >
b0 H
b0 $"
b0 B
1(
1D
b0 1
b0 7
b0 8
b0 F
b0 c
b0 <
b11 O
b11 Z
b11 n
b11 U
b11 [
b11 ^
b11 #"
b11 %"
b10011 *
b10011 3
b10011 @
b10011 S
b0 .
b0 5
b0 :
b0 V
0-
b110000000001000 ""
b1000 v
b11 u
b0 N
b0 f
b0 w
b0 t
b1100000000010000010011 T
b1100000000010000010011 l
b0 k
b100 P
b100 a
b100 m
b100 |
b0 R
b0 \
b0 b
b0 p
b0 s
1"
#100000
0"
0$
#150000
b1 L
b1 y
b1 }
b1 !"
b1 Y
b1 d
b1 h
b1 z
b1 g
b1 K
b1 ]
b1 e
b1 U
b1 [
b1 ^
b1 #"
b1 %"
b10000000001001 ""
b1001 v
b1 u
b1000 Q
b1000 o
b1000 r
b100000000010010010011 T
b100000000010010010011 l
b1 k
b1000 P
b1000 a
b1000 m
b1000 |
b101 O
b101 Z
b101 n
b100 R
b100 \
b100 b
b100 p
b100 s
1"
#200000
0"
#250000
b10000 L
b10000 y
b10000 }
b10000 !"
b10000 Y
b10000 d
b10000 h
b10000 z
b10000 g
b10000 K
b10000 ]
b10000 e
b10000 U
b10000 [
b10000 ^
b10000 #"
b10000 %"
b100000000000010010 ""
b10010 v
b10000 u
b1100 Q
b1100 o
b1100 r
b1000000000000100100010011 T
b1000000000000100100010011 l
b10 k
b1100 P
b1100 a
b1100 m
b1100 |
b11000 O
b11000 Z
b11000 n
b1000 R
b1000 \
b1000 b
b1000 p
b1000 s
1"
#300000
0"
#350000
b1 K
b1 ]
b1 e
b11 L
b11 y
b11 }
b11 !"
19
00
bx ,
bx 4
bx >
bx H
bx $"
bx B
b11 1
b11 7
b11 8
b11 F
b11 c
b11 <
b0 U
b0 [
b0 ^
b0 #"
b0 %"
b11 Y
b11 d
b11 h
b11 z
b11 g
b110011 *
b110011 3
b110011 @
b110011 S
b110 .
b110 5
b110 :
b110 V
b10010100011000101 ""
b101 v
b1 M
b1 _
b1 j
b1 x
b1001 u
b11 N
b11 f
b11 w
b1000 t
b10000 Q
b10000 o
b10000 r
b100101000110001010110011 T
b100101000110001010110011 l
b11 k
b10000 P
b10000 a
b10000 m
b10000 |
b1100 O
b1100 Z
b1100 n
b1100 R
b1100 \
b1100 b
b1100 p
b1100 s
1"
#400000
0"
#450000
b1 L
b1 y
b1 }
b1 !"
b1 Y
b1 d
b1 h
b1 z
b1 g
b10 1
b10 7
b10 8
b10 F
b10 c
b10 <
b111 .
b111 5
b111 :
b111 V
b10010100011100110 ""
b110 v
b10100 Q
b10100 o
b10100 r
b100101000111001100110011 T
b100101000111001100110011 l
b100 k
b10100 P
b10100 a
b10100 m
b10100 |
b10000 O
b10000 Z
b10000 n
b10000 R
b10000 \
b10000 b
b10000 p
b10000 s
1"
#500000
0"
#550000
b100 L
b100 y
b100 }
b100 !"
b100 Y
b100 d
b100 h
b100 z
b100 g
b0 1
b0 7
b0 8
b0 F
b0 c
b0 <
b0 .
b0 5
b0 :
b0 V
b10010100000000111 ""
b111 v
b11000 Q
b11000 o
b11000 r
b100101000000001110110011 T
b100101000000001110110011 l
b101 k
b11000 P
b11000 a
b11000 m
b11000 |
b10100 O
b10100 Z
b10100 n
b10100 R
b10100 \
b10100 b
b10100 p
b10100 s
1"
#600000
0"
#650000
b10 L
b10 y
b10 }
b10 !"
b10 Y
b10 d
b10 h
b10 z
b10 g
b1 1
b1 7
b1 8
b1 F
b1 c
b1 <
1-
b100000010010100000011100 ""
b11100 v
b11100 Q
b11100 o
b11100 r
b1000000100101000000111000110011 T
b1000000100101000000111000110011 l
b110 k
b11100 P
b11100 a
b11100 m
b11100 |
b11000 O
b11000 Z
b11000 n
b11000 R
b11000 \
b11000 b
b11000 p
b11000 s
1"
#700000
0"
#750000
0&
0W
b11111111111111111111111111111110 L
b11111111111111111111111111111110 y
b11111111111111111111111111111110 }
b11111111111111111111111111111110 !"
b11 K
b11 ]
b11 e
b11111111111111111111111111111110 Y
b11111111111111111111111111111110 d
b11111111111111111111111111111110 h
b11111111111111111111111111111110 z
b11111111111111111111111111111110 g
b100000010000100100011101 ""
b11101 v
b11 M
b11 _
b11 j
b11 x
b1000 u
b1 N
b1 f
b1 w
b1001 t
b100000 Q
b100000 o
b100000 r
b1000000100001001000111010110011 T
b1000000100001001000111010110011 l
b111 k
b100000 P
b100000 a
b100000 m
b100000 |
b11100 O
b11100 Z
b11100 n
b11100 R
b11100 \
b11100 b
b11100 p
b11100 s
1"
#800000
0"
#850000
1&
1W
b0 L
b0 y
b0 }
b0 !"
b101 1
b101 7
b101 8
b101 F
b101 c
b101 <
b1 K
b1 ]
b1 e
b0 Y
b0 d
b0 h
b0 z
b0 g
b10 .
b10 5
b10 :
b10 V
0-
b10010100001011110 ""
b11110 v
b1 M
b1 _
b1 j
b1 x
b1001 u
b11 N
b11 f
b11 w
b1000 t
b100100 Q
b100100 o
b100100 r
b100101000010111100110011 T
b100101000010111100110011 l
b1000 k
b100100 P
b100100 a
b100100 m
b100100 |
b100000 O
b100000 Z
b100000 n
b100000 R
b100000 \
b100000 b
b100000 p
b100000 s
1"
#900000
0"
#950000
0&
0W
b1 L
b1 y
b1 }
b1 !"
b1 Y
b1 d
b1 h
b1 z
b1 g
b11 K
b11 ]
b11 e
b10000100101011111 ""
b11111 v
b11 M
b11 _
b11 j
b11 x
b1000 u
b1 N
b1 f
b1 w
b1001 t
b101000 Q
b101000 o
b101000 r
b100001001010111110110011 T
b100001001010111110110011 l
b1001 k
b101000 P
b101000 a
b101000 m
b101000 |
b100100 O
b100100 Z
b100100 n
b100100 R
b100100 \
b100100 b
b100100 p
b100100 s
1"
#1000000
0"
#1050000
b11111111111111111111111111111110 K
b11111111111111111111111111111110 ]
b11111111111111111111111111111110 e
b111010100101011111 ""
b11111111111111111111111111111110 M
b11111111111111111111111111111110 _
b11111111111111111111111111111110 j
b11111111111111111111111111111110 x
b11101 u
b101100 Q
b101100 o
b101100 r
b1110101001010111110110011 T
b1110101001010111110110011 l
b1010 k
b101100 P
b101100 a
b101100 m
b101100 |
b101000 O
b101000 Z
b101000 n
b101000 R
b101000 \
b101000 b
b101000 p
b101000 s
1"
#1100000
0"
#1150000
0&
0W
b1 L
b1 y
b1 }
b1 !"
b1 U
b1 [
b1 ^
b1 #"
b1 %"
b1 Y
b1 d
b1 h
b1 z
b1 g
09
10
b0 ,
b0 4
b0 >
b0 H
b0 $"
b0 B
b0 1
b0 7
b0 8
b0 F
b0 c
b0 <
b1 K
b1 ]
b1 e
b10011 *
b10011 3
b10011 @
b10011 S
b0 .
b0 5
b0 :
b0 V
b10000000000101 ""
b101 v
bx M
bx _
bx j
bx x
b1 u
b0 N
b0 f
b0 w
b0 t
b110000 Q
b110000 o
b110000 r
b100000000001010010011 T
b100000000001010010011 l
b1011 k
b110000 P
b110000 a
b110000 m
b110000 |
b101101 O
b101101 Z
b101101 n
b101100 R
b101100 \
b101100 b
b101100 p
b101100 s
1"
#1200000
0"
#1250000
1&
1W
b0 L
b0 y
b0 }
b0 !"
b0 Y
b0 d
b0 h
b0 z
b0 g
b0 K
b0 ]
b0 e
b0 U
b0 [
b0 ^
b0 #"
b0 %"
b110 ""
b110 v
b0 M
b0 _
b0 j
b0 x
b0 u
b110100 Q
b110100 o
b110100 r
b1100010011 T
b1100010011 l
b1100 k
b110100 P
b110100 a
b110100 m
b110100 |
b110000 O
b110000 Z
b110000 n
b110000 R
b110000 \
b110000 b
b110000 p
b110000 s
1"
#1300000
0"
#1350000
0)
0&
0W
b1 1
b1 7
b1 8
b1 F
b1 c
b1 <
b10000 K
b10000 ]
b10000 e
b0xxxxxxxxxxxxxxxxxxxxxxxxxxxxxxx L
b0xxxxxxxxxxxxxxxxxxxxxxxxxxxxxxx y
b0xxxxxxxxxxxxxxxxxxxxxxxxxxxxxxx }
b0xxxxxxxxxxxxxxxxxxxxxxxxxxxxxxx !"
19
b1 6
b1 ;
b1 =
b1 A
1/
b0x '
b0x 2
b0x ?
b0x E
b0x J
b0x ~
00
b10 ,
b10 4
b10 >
b10 H
b10 $"
b10 B
0(
0D
b10000 U
b10000 [
b10000 ^
b10000 #"
b10000 %"
b11111111111111111111111111110001 Y
b11111111111111111111111111110001 d
b11111111111111111111111111110001 h
b11111111111111111111111111110001 z
b11111111111111111111111111110001 g
b1100011 *
b1100011 3
b1100011 @
b1100011 S
b100100010100010000 ""
b10000 v
b10000 M
b10000 _
b10000 j
b10000 x
b10010 u
b1 N
b1 f
b1 w
b101 t
b111000 Q
b111000 o
b111000 r
b1001000101000100001100011 T
b1001000101000100001100011 l
b1101 k
b111000 P
b111000 a
b111000 m
b111000 |
b1000100 O
b1000100 Z
b1000100 n
b110100 R
b110100 \
b110100 b
b110100 p
b110100 s
1"
#1400000
0"
#1450000
0&
0W
b0 1
b0 7
b0 8
b0 F
b0 c
b0 <
b10 L
b10 y
b10 }
b10 !"
b10 Y
b10 d
b10 h
b10 z
b10 g
b10 6
b10 ;
b10 =
b10 A
0/
b0 '
b0 2
b0 ?
b0 E
b0 J
b0 ~
bx ,
bx 4
bx >
bx H
bx $"
bx B
1(
1D
b0 U
b0 [
b0 ^
b0 #"
b0 %"
b1 K
b1 ]
b1 e
b110011 *
b110011 3
b110011 @
b110011 S
b1010010100000101 ""
b101 v
b1 M
b1 _
b1 j
b1 x
b101 u
b111100 Q
b111100 o
b111100 r
b10100101000001010110011 T
b10100101000001010110011 l
b1110 k
b111100 P
b111100 a
b111100 m
b111100 |
b111000 O
b111000 Z
b111000 n
b111000 R
b111000 \
b111000 b
b111000 p
b111000 s
1"
#1500000
0"
#1550000
0&
0W
b1 U
b1 [
b1 ^
b1 #"
b1 %"
09
10
b0 ,
b0 4
b0 >
b0 H
b0 $"
b0 B
b1 L
b1 y
b1 }
b1 !"
b10011 *
b10011 3
b10011 @
b10011 S
b10011000000110 ""
b110 v
b1 u
b110 t
b1 Y
b1 d
b1 h
b1 z
b1 g
b1 K
b1 ]
b1 e
b1000000 Q
b1000000 o
b1000000 r
b100110000001100010011 T
b100110000001100010011 l
b1111 k
b0 N
b0 f
b0 w
bx M
bx _
bx j
bx x
b1000000 P
b1000000 a
b1000000 m
b1000000 |
b111101 O
b111101 Z
b111101 n
b111100 R
b111100 \
b111100 b
b111100 p
b111100 s
1"
#1600000
0"
#1650000
1&
1W
1)
bx K
bx ]
bx e
19
bx 6
bx ;
bx =
bx A
b10 '
b10 2
b10 ?
b10 E
b10 J
b10 ~
x0
b11 ,
b11 4
b11 >
b11 H
b11 $"
b11 B
b100 1
b100 7
b100 8
b100 F
b100 c
b100 <
b11111111111111111111111111110100 U
b11111111111111111111111111110100 [
b11111111111111111111111111110100 ^
b11111111111111111111111111110100 #"
b11111111111111111111111111110100 %"
b1101111 *
b1101111 3
b1101111 @
b1101111 S
b111 .
b111 5
b111 :
b111 V
1-
b1111111101011111111100000 ""
b0 v
b10101 u
b11111 t
b110100 Q
b110100 o
b110100 r
b1000100 L
b1000100 y
b1000100 }
b1000100 !"
b11111111010111111111000001101111 T
b11111111010111111111000001101111 l
b10000 k
b0 Y
b0 d
b0 h
b0 z
b0 g
b1000100 P
b1000100 a
b1000100 m
b1000100 |
b110100 O
b110100 Z
b110100 n
b1000000 R
b1000000 \
b1000000 b
b1000000 p
b1000000 s
b1 N
b1 f
b1 w
1"
#1700000
0"
#1750000
0)
0&
0W
b11111111111111111111111111110010 Y
b11111111111111111111111111110010 d
b11111111111111111111111111110010 h
b11111111111111111111111111110010 z
b11111111111111111111111111110010 g
b1 1
b1 7
b1 8
b1 F
b1 c
b1 <
b1 6
b1 ;
b1 =
b1 A
1/
b0x '
b0x 2
b0x ?
b0x E
b0x J
b0x ~
00
b10 ,
b10 4
b10 >
b10 H
b10 $"
b10 B
0(
0D
b10000 U
b10000 [
b10000 ^
b10000 #"
b10000 %"
b10000 K
b10000 ]
b10000 e
b1100011 *
b1100011 3
b1100011 @
b1100011 S
b0 .
b0 5
b0 :
b0 V
0-
b100100010100010000 ""
b10000 v
b10000 M
b10000 _
b10000 j
b10000 x
b10010 u
b10 N
b10 f
b10 w
b101 t
b0xxxxxxxxxxxxxxxxxxxxxxxxxxxxxxx L
b0xxxxxxxxxxxxxxxxxxxxxxxxxxxxxxx y
b0xxxxxxxxxxxxxxxxxxxxxxxxxxxxxxx }
b0xxxxxxxxxxxxxxxxxxxxxxxxxxxxxxx !"
b111000 Q
b111000 o
b111000 r
b1001000101000100001100011 T
b1001000101000100001100011 l
b1101 k
b111000 P
b111000 a
b111000 m
b111000 |
b1000100 O
b1000100 Z
b1000100 n
b110100 R
b110100 \
b110100 b
b110100 p
b110100 s
1"
#1800000
0"
#1850000
0&
0W
b0 1
b0 7
b0 8
b0 F
b0 c
b0 <
b100 L
b100 y
b100 }
b100 !"
b100 Y
b100 d
b100 h
b100 z
b100 g
b10 6
b10 ;
b10 =
b10 A
0/
b0 '
b0 2
b0 ?
b0 E
b0 J
b0 ~
bx ,
bx 4
bx >
bx H
bx $"
bx B
1(
1D
b0 U
b0 [
b0 ^
b0 #"
b0 %"
b10 K
b10 ]
b10 e
b110011 *
b110011 3
b110011 @
b110011 S
b1010010100000101 ""
b101 v
b10 M
b10 _
b10 j
b10 x
b101 u
b111100 Q
b111100 o
b111100 r
b10100101000001010110011 T
b10100101000001010110011 l
b1110 k
b111100 P
b111100 a
b111100 m
b111100 |
b111000 O
b111000 Z
b111000 n
b111000 R
b111000 \
b111000 b
b111000 p
b111000 s
1"
#1900000
0"
#1950000
0&
0W
b1 U
b1 [
b1 ^
b1 #"
b1 %"
09
10
b0 ,
b0 4
b0 >
b0 H
b0 $"
b0 B
b10 L
b10 y
b10 }
b10 !"
b10011 *
b10011 3
b10011 @
b10011 S
b10011000000110 ""
b110 v
b1 u
b110 t
b10 Y
b10 d
b10 h
b10 z
b10 g
b1 K
b1 ]
b1 e
b1000000 Q
b1000000 o
b1000000 r
b100110000001100010011 T
b100110000001100010011 l
b1111 k
b1 N
b1 f
b1 w
bx M
bx _
bx j
bx x
b1000000 P
b1000000 a
b1000000 m
b1000000 |
b111101 O
b111101 Z
b111101 n
b111100 R
b111100 \
b111100 b
b111100 p
b111100 s
1"
#2000000
0"
#2050000
1&
1W
1)
bx K
bx ]
bx e
19
bx 6
bx ;
bx =
bx A
b10 '
b10 2
b10 ?
b10 E
b10 J
b10 ~
x0
b11 ,
b11 4
b11 >
b11 H
b11 $"
b11 B
b100 1
b100 7
b100 8
b100 F
b100 c
b100 <
b11111111111111111111111111110100 U
b11111111111111111111111111110100 [
b11111111111111111111111111110100 ^
b11111111111111111111111111110100 #"
b11111111111111111111111111110100 %"
b1101111 *
b1101111 3
b1101111 @
b1101111 S
b111 .
b111 5
b111 :
b111 V
1-
b1111111101011111111100000 ""
b0 v
b10101 u
b11111 t
b110100 Q
b110100 o
b110100 r
b1000100 L
b1000100 y
b1000100 }
b1000100 !"
b11111111010111111111000001101111 T
b11111111010111111111000001101111 l
b10000 k
b0 Y
b0 d
b0 h
b0 z
b0 g
b1000100 P
b1000100 a
b1000100 m
b1000100 |
b110100 O
b110100 Z
b110100 n
b1000000 R
b1000000 \
b1000000 b
b1000000 p
b1000000 s
b1 N
b1 f
b1 w
1"
#2100000
0"
#2150000
0)
0&
0W
b11111111111111111111111111110100 Y
b11111111111111111111111111110100 d
b11111111111111111111111111110100 h
b11111111111111111111111111110100 z
b11111111111111111111111111110100 g
b1 1
b1 7
b1 8
b1 F
b1 c
b1 <
b1 6
b1 ;
b1 =
b1 A
1/
b0x '
b0x 2
b0x ?
b0x E
b0x J
b0x ~
00
b10 ,
b10 4
b10 >
b10 H
b10 $"
b10 B
0(
0D
b10000 U
b10000 [
b10000 ^
b10000 #"
b10000 %"
b10000 K
b10000 ]
b10000 e
b1100011 *
b1100011 3
b1100011 @
b1100011 S
b0 .
b0 5
b0 :
b0 V
0-
b100100010100010000 ""
b10000 v
b10000 M
b10000 _
b10000 j
b10000 x
b10010 u
b100 N
b100 f
b100 w
b101 t
b0xxxxxxxxxxxxxxxxxxxxxxxxxxxxxxx L
b0xxxxxxxxxxxxxxxxxxxxxxxxxxxxxxx y
b0xxxxxxxxxxxxxxxxxxxxxxxxxxxxxxx }
b0xxxxxxxxxxxxxxxxxxxxxxxxxxxxxxx !"
b111000 Q
b111000 o
b111000 r
b1001000101000100001100011 T
b1001000101000100001100011 l
b1101 k
b111000 P
b111000 a
b111000 m
b111000 |
b1000100 O
b1000100 Z
b1000100 n
b110100 R
b110100 \
b110100 b
b110100 p
b110100 s
1"
#2200000
0"
#2250000
0&
0W
b0 1
b0 7
b0 8
b0 F
b0 c
b0 <
b1000 L
b1000 y
b1000 }
b1000 !"
b1000 Y
b1000 d
b1000 h
b1000 z
b1000 g
b10 6
b10 ;
b10 =
b10 A
0/
b0 '
b0 2
b0 ?
b0 E
b0 J
b0 ~
bx ,
bx 4
bx >
bx H
bx $"
bx B
1(
1D
b0 U
b0 [
b0 ^
b0 #"
b0 %"
b100 K
b100 ]
b100 e
b110011 *
b110011 3
b110011 @
b110011 S
b1010010100000101 ""
b101 v
b100 M
b100 _
b100 j
b100 x
b101 u
b111100 Q
b111100 o
b111100 r
b10100101000001010110011 T
b10100101000001010110011 l
b1110 k
b111100 P
b111100 a
b111100 m
b111100 |
b111000 O
b111000 Z
b111000 n
b111000 R
b111000 \
b111000 b
b111000 p
b111000 s
1"
#2300000
0"
#2350000
0&
0W
b1 U
b1 [
b1 ^
b1 #"
b1 %"
09
10
b0 ,
b0 4
b0 >
b0 H
b0 $"
b0 B
b11 L
b11 y
b11 }
b11 !"
b10011 *
b10011 3
b10011 @
b10011 S
b10011000000110 ""
b110 v
b1 u
b110 t
b11 Y
b11 d
b11 h
b11 z
b11 g
b1 K
b1 ]
b1 e
b1000000 Q
b1000000 o
b1000000 r
b100110000001100010011 T
b100110000001100010011 l
b1111 k
b10 N
b10 f
b10 w
bx M
bx _
bx j
bx x
b1000000 P
b1000000 a
b1000000 m
b1000000 |
b111101 O
b111101 Z
b111101 n
b111100 R
b111100 \
b111100 b
b111100 p
b111100 s
1"
#2400000
0"
#2450000
1&
1W
1)
bx K
bx ]
bx e
19
bx 6
bx ;
bx =
bx A
b10 '
b10 2
b10 ?
b10 E
b10 J
b10 ~
x0
b11 ,
b11 4
b11 >
b11 H
b11 $"
b11 B
b100 1
b100 7
b100 8
b100 F
b100 c
b100 <
b11111111111111111111111111110100 U
b11111111111111111111111111110100 [
b11111111111111111111111111110100 ^
b11111111111111111111111111110100 #"
b11111111111111111111111111110100 %"
b1101111 *
b1101111 3
b1101111 @
b1101111 S
b111 .
b111 5
b111 :
b111 V
1-
b1111111101011111111100000 ""
b0 v
b10101 u
b11111 t
b110100 Q
b110100 o
b110100 r
b1000100 L
b1000100 y
b1000100 }
b1000100 !"
b11111111010111111111000001101111 T
b11111111010111111111000001101111 l
b10000 k
b0 Y
b0 d
b0 h
b0 z
b0 g
b1000100 P
b1000100 a
b1000100 m
b1000100 |
b110100 O
b110100 Z
b110100 n
b1000000 R
b1000000 \
b1000000 b
b1000000 p
b1000000 s
b1 N
b1 f
b1 w
1"
#2500000
0"
#2550000
0)
0&
0W
b11111111111111111111111111111000 Y
b11111111111111111111111111111000 d
b11111111111111111111111111111000 h
b11111111111111111111111111111000 z
b11111111111111111111111111111000 g
b1 1
b1 7
b1 8
b1 F
b1 c
b1 <
b1 6
b1 ;
b1 =
b1 A
1/
b0x '
b0x 2
b0x ?
b0x E
b0x J
b0x ~
00
b10 ,
b10 4
b10 >
b10 H
b10 $"
b10 B
0(
0D
b10000 U
b10000 [
b10000 ^
b10000 #"
b10000 %"
b10000 K
b10000 ]
b10000 e
b1100011 *
b1100011 3
b1100011 @
b1100011 S
b0 .
b0 5
b0 :
b0 V
0-
b100100010100010000 ""
b10000 v
b10000 M
b10000 _
b10000 j
b10000 x
b10010 u
b1000 N
b1000 f
b1000 w
b101 t
b0xxxxxxxxxxxxxxxxxxxxxxxxxxxxxxx L
b0xxxxxxxxxxxxxxxxxxxxxxxxxxxxxxx y
b0xxxxxxxxxxxxxxxxxxxxxxxxxxxxxxx }
b0xxxxxxxxxxxxxxxxxxxxxxxxxxxxxxx !"
b111000 Q
b111000 o
b111000 r
b1001000101000100001100011 T
b1001000101000100001100011 l
b1101 k
b111000 P
b111000 a
b111000 m
b111000 |
b1000100 O
b1000100 Z
b1000100 n
b110100 R
b110100 \
b110100 b
b110100 p
b110100 s
1"
#2600000
0"
#2650000
0&
0W
b0 1
b0 7
b0 8
b0 F
b0 c
b0 <
b10000 L
b10000 y
b10000 }
b10000 !"
b10000 Y
b10000 d
b10000 h
b10000 z
b10000 g
b10 6
b10 ;
b10 =
b10 A
0/
b0 '
b0 2
b0 ?
b0 E
b0 J
b0 ~
bx ,
bx 4
bx >
bx H
bx $"
bx B
1(
1D
b0 U
b0 [
b0 ^
b0 #"
b0 %"
b1000 K
b1000 ]
b1000 e
b110011 *
b110011 3
b110011 @
b110011 S
b1010010100000101 ""
b101 v
b1000 M
b1000 _
b1000 j
b1000 x
b101 u
b111100 Q
b111100 o
b111100 r
b10100101000001010110011 T
b10100101000001010110011 l
b1110 k
b111100 P
b111100 a
b111100 m
b111100 |
b111000 O
b111000 Z
b111000 n
b111000 R
b111000 \
b111000 b
b111000 p
b111000 s
1"
#2700000
0"
#2750000
0&
0W
b1 U
b1 [
b1 ^
b1 #"
b1 %"
09
10
b0 ,
b0 4
b0 >
b0 H
b0 $"
b0 B
b100 L
b100 y
b100 }
b100 !"
b10011 *
b10011 3
b10011 @
b10011 S
b10011000000110 ""
b110 v
b1 u
b110 t
b100 Y
b100 d
b100 h
b100 z
b100 g
b1 K
b1 ]
b1 e
b1000000 Q
b1000000 o
b1000000 r
b100110000001100010011 T
b100110000001100010011 l
b1111 k
b11 N
b11 f
b11 w
bx M
bx _
bx j
bx x
b1000000 P
b1000000 a
b1000000 m
b1000000 |
b111101 O
b111101 Z
b111101 n
b111100 R
b111100 \
b111100 b
b111100 p
b111100 s
1"
#2800000
0"
