tpi/rv32i/rv32i_tb.vcd
$date
	Mon Nov 18 16:06:58 2024
$end
$version
	Icarus Verilog
$end
$timescale
	1ps
$end
$scope module rv32i_tb $end
$var parameter 32 ! DURATION $end
$var reg 1 " clk $end
$scope module UUT $end
$var wire 1 " clk $end
$var wire 1 # zero $end
$var wire 2 $ resSrc [1:0] $end
$var wire 1 % regWrite $end
$var wire 1 & pcSrc $end
$var wire 7 ' op [6:0] $end
$var wire 1 ( memWrite $end
$var wire 2 ) inmSrc [1:0] $end
$var wire 1 * f7 $end
$var wire 3 + f3 [2:0] $end
$var wire 1 , branch $end
$var wire 1 - aluSrc $end
$var wire 3 . ALUControl [2:0] $end
$scope module controlUnit $end
$var event 1 / _ivl_8 $end
$var wire 1 & pcSrc $end
$var wire 1 # zero $end
$var wire 2 0 resSrc [1:0] $end
$var wire 1 % regWrite $end
$var wire 7 1 op [6:0] $end
$var wire 1 ( memWrite $end
$var wire 2 2 inmSrc [1:0] $end
$var wire 1 * f7 $end
$var wire 3 3 f3 [2:0] $end
$var wire 1 , branch $end
$var wire 1 - aluSrc $end
$var wire 2 4 aluOp [1:0] $end
$var wire 3 5 ALUControl [2:0] $end
$scope module AD $end
$var wire 3 6 ALUControl [2:0] $end
$var wire 1 7 op $end
$var wire 1 * f7 $end
$var wire 3 8 f3 [2:0] $end
$var wire 2 9 aluOp [1:0] $end
$var reg 3 : aux_ALUControl [2:0] $end
$upscope $end
$scope module MD $end
$var wire 2 ; aluOp [1:0] $end
$var wire 1 , branch $end
$var wire 2 < inmSrc [1:0] $end
$var wire 1 ( memWrite $end
$var wire 1 % regWrite $end
$var wire 2 = resSrc [1:0] $end
$var wire 7 > op [6:0] $end
$var wire 1 - aluSrc $end
$var reg 2 ? aux_aluOp [1:0] $end
$var reg 1 - aux_aluSrc $end
$var reg 1 , aux_branch $end
$var reg 2 @ aux_inmSrc [1:0] $end
$var reg 1 A aux_memWrite $end
$var reg 1 B aux_regWrite $end
$var reg 2 C aux_resSrc [1:0] $end
$upscope $end
$upscope $end
$scope module dataPath $end
$var wire 3 D ALUControl [2:0] $end
$var wire 1 - aluSrc $end
$var wire 1 , branch $end
$var wire 1 " clk $end
$var wire 3 E four [2:0] $end
$var wire 2 F inmSrc [1:0] $end
$var wire 1 ( memWrite $end
$var wire 1 & pcSrc $end
$var wire 1 % regWrite $end
$var wire 2 G resSrc [1:0] $end
$var wire 1 # zero $end
$var wire 32 H srcB [31:0] $end
$var wire 32 I result [31:0] $end
$var wire 32 J rd2 [31:0] $end
$var wire 32 K rd1 [31:0] $end
$var wire 32 L pcTarget [31:0] $end
$var wire 32 M pcPlus4 [31:0] $end
$var wire 32 N pcNext [31:0] $end
$var wire 32 O pc [31:0] $end
$var wire 7 P op [6:0] $end
$var wire 32 Q inst [31:0] $end
$var wire 32 R inmExt [31:0] $end
$var wire 1 * f7 $end
$var wire 3 S f3 [2:0] $end
$var wire 1 T aux_zero $end
$var wire 32 U ReadData [31:0] $end
$var wire 32 V ALUResult [31:0] $end
$scope module ab $end
$var wire 32 W res [31:0] $end
$var wire 32 X op2 [31:0] $end
$var wire 32 Y op1 [31:0] $end
$upscope $end
$scope module aluMux $end
$var wire 1 - sel $end
$var wire 32 Z salMux [31:0] $end
$var wire 32 [ e2 [31:0] $end
$var wire 32 \ e1 [31:0] $end
$upscope $end
$scope module apc $end
$var wire 32 ] op2 [31:0] $end
$var wire 32 ^ res [31:0] $end
$var wire 32 _ op1 [31:0] $end
$upscope $end
$scope module arithmeticLogicUnit $end
$var wire 3 ` ALUControl [2:0] $end
$var wire 32 a result [31:0] $end
$var wire 32 b srcB [31:0] $end
$var wire 1 T zero $end
$var wire 32 c srcA [31:0] $end
$var reg 32 d aux [31:0] $end
$upscope $end
$scope module dataMemory $end
$var wire 32 e addresDM [31:0] $end
$var wire 1 " clk $end
$var wire 32 f rd [31:0] $end
$var wire 1 ( we $end
$var wire 32 g wd [31:0] $end
$var integer 32 h i [31:0] $end
$upscope $end
$scope module instructionMemory $end
$var wire 32 i inst [31:0] $end
$var wire 32 j adressIM [31:0] $end
$upscope $end
$scope module muxPcSrc $end
$var wire 32 k e1 [31:0] $end
$var wire 32 l e2 [31:0] $end
$var wire 1 & sel $end
$var wire 32 m salMux [31:0] $end
$upscope $end
$scope module programCounter $end
$var wire 1 " clk $end
$var wire 32 n pc [31:0] $end
$var wire 32 o pcNext [31:0] $end
$var reg 32 p aux_pc [31:0] $end
$upscope $end
$scope module registerBank $end
$var wire 5 q a1 [4:0] $end
$var wire 5 r a2 [4:0] $end
$var wire 5 s a3 [4:0] $end
$var wire 1 " clk $end
$var wire 32 t rd1 [31:0] $end
$var wire 32 u rd2 [31:0] $end
$var wire 1 % we $end
$var wire 32 v wd3 [31:0] $end
$var integer 32 w i [31:0] $end
$upscope $end
$scope module resMux $end
$var wire 32 x e1 [31:0] $end
$var wire 32 y e2 [31:0] $end
$var wire 32 z e3 [31:0] $end
$var wire 32 { salMux [31:0] $end
$var wire 2 | sel [1:0] $end
$var reg 32 } aux [31:0] $end
$upscope $end
$scope module signExtension $end
$var wire 32 ~ inm [31:0] $end
$var wire 32 !" inmExt [31:0] $end
$var wire 2 "" src [1:0] $end
$var reg 32 #" aux_inm [31:0] $end
$upscope $end
$upscope $end
$upscope $end
$upscope $end
$enddefinitions $end
$comment Show the parameter values. $end
$dumpall
b1100100 !
$end
#0
$dumpvars
b11 #"
b0 ""
b11 !"
b1100000000010000010011 ~
b11 }
b0 |
b11 {
b100 z
b0 y
b11 x
b100000 w
b11 v
b0 u
b0 t
b1000 s
b11 r
b0 q
b0 p
b100 o
b0 n
b100 m
b11 l
b100 k
b0 j
b1100000000010000010011 i
b100000 h
b0 g
b0 f
b11 e
b11 d
b0 c
b11 b
b11 a
b0 `
b0 _
b100 ^
b100 ]
b0 \
b11 [
b11 Z
b0 Y
b11 X
b11 W
b11 V
b0 U
0T
b0 S
b11 R
b1100000000010000010011 Q
b10011 P
b0 O
b100 N
b100 M
b11 L
b0 K
b0 J
b11 I
b11 H
b0 G
b0 F
b100 E
b0 D
b0 C
1B
0A
b0 @
b10 ?
b10011 >
b0 =
b0 <
b10 ;
b0 :
b10 9
b0 8
07
b0 6
b0 5
b10 4
b0 3
b0 2
b10011 1
b0 0
1/
b0 .
1-
0,
b0 +
0*
b0 )
0(
b10011 '
0&
1%
b0 $
0#
0"
$end
#50000
b1 I
b1 v
b1 {
b1 }
b1 V
b1 a
b1 e
b1 x
b1 d
b1 H
b1 Z
b1 b
b1 R
b1 X
b1 [
b1 !"
b1 #"
b1001 s
b1 r
b1000 N
b1000 m
b1000 o
b100000000010010010011 Q
b100000000010010010011 i
b100000000010010010011 ~
b1000 M
b1000 ^
b1000 k
b1000 z
b101 L
b101 W
b101 l
b100 O
b100 Y
b100 _
b100 j
b100 n
b100 p
1"
#100000
0"
#150000
b10000 I
b10000 v
b10000 {
b10000 }
b10000 V
b10000 a
b10000 e
b10000 x
b10000 d
b10000 H
b10000 Z
b10000 b
b10000 R
b10000 X
b10000 [
b10000 !"
b10000 #"
b10010 s
b10000 r
b1100 N
b1100 m
b1100 o
b1000000000000100100010011 Q
b1000000000000100100010011 i
b1000000000000100100010011 ~
b1100 M
b1100 ^
b1100 k
b1100 z
b11000 L
b11000 W
b11000 l
b1000 O
b1000 Y
b1000 _
b1000 j
b1000 n
b1000 p
1"
#200000
0"
#250000
b11 I
b11 v
b11 {
b11 }
b1 H
b1 Z
b1 b
17
0-
bx )
bx 2
bx <
bx F
bx ""
bx @
b11 .
b11 5
b11 6
b11 D
b11 `
b11 :
b11 V
b11 a
b11 e
b11 x
b11 d
b0 R
b0 X
b0 [
b0 !"
b0 #"
b110011 '
b110011 1
b110011 >
b110011 P
b110 +
b110 3
b110 8
b110 S
b101 s
b1 J
b1 \
b1 g
b1 u
b1001 r
b11 K
b11 c
b11 t
b1000 q
b10000 N
b10000 m
b10000 o
b100101000110001010110011 Q
b100101000110001010110011 i
b100101000110001010110011 ~
b10000 M
b10000 ^
b10000 k
b10000 z
b1100 L
b1100 W
b1100 l
b1100 O
b1100 Y
b1100 _
b1100 j
b1100 n
b1100 p
1"
#300000
0"
#350000
b1 I
b1 v
b1 {
b1 }
b1 V
b1 a
b1 e
b1 x
b1 d
b10 .
b10 5
b10 6
b10 D
b10 `
b10 :
b111 +
b111 3
b111 8
b111 S
b110 s
b10100 N
b10100 m
b10100 o
b100101000111001100110011 Q
b100101000111001100110011 i
b100101000111001100110011 ~
b10100 M
b10100 ^
b10100 k
b10100 z
b10000 L
b10000 W
b10000 l
b10000 O
b10000 Y
b10000 _
b10000 j
b10000 n
b10000 p
1"
#400000
0"
#450000
b100 I
b100 v
b100 {
b100 }
b100 V
b100 a
b100 e
b100 x
b100 d
b0 .
b0 5
b0 6
b0 D
b0 `
b0 :
b0 +
b0 3
b0 8
b0 S
b111 s
b11000 N
b11000 m
b11000 o
b100101000000001110110011 Q
b100101000000001110110011 i
b100101000000001110110011 ~
b11000 M
b11000 ^
b11000 k
b11000 z
b10100 L
b10100 W
b10100 l
b10100 O
b10100 Y
b10100 _
b10100 j
b10100 n
b10100 p
1"
#500000
0"
#550000
b10 I
b10 v
b10 {
b10 }
b10 V
b10 a
b10 e
b10 x
b10 d
b1 .
b1 5
b1 6
b1 D
b1 `
b1 :
1*
b11100 s
b11100 N
b11100 m
b11100 o
b1000000100101000000111000110011 Q
b1000000100101000000111000110011 i
b1000000100101000000111000110011 ~
b11100 M
b11100 ^
b11100 k
b11100 z
b11000 L
b11000 W
b11000 l
b11000 O
b11000 Y
b11000 _
b11000 j
b11000 n
b11000 p
1"
#600000
0"
#650000
0#
0T
bx U
bx f
bx y
b11111111111111111111111111111110 I
b11111111111111111111111111111110 v
b11111111111111111111111111111110 {
b11111111111111111111111111111110 }
b11 H
b11 Z
b11 b
b11111111111111111111111111111110 V
b11111111111111111111111111111110 a
b11111111111111111111111111111110 e
b11111111111111111111111111111110 x
b11111111111111111111111111111110 d
b11101 s
b11 J
b11 \
b11 g
b11 u
b1000 r
b1 K
b1 c
b1 t
b1001 q
b100000 N
b100000 m
b100000 o
b1000000100001001000111010110011 Q
b1000000100001001000111010110011 i
b1000000100001001000111010110011 ~
b100000 M
b100000 ^
b100000 k
b100000 z
b11100 L
b11100 W
b11100 l
b11100 O
b11100 Y
b11100 _
b11100 j
b11100 n
b11100 p
1"
#700000
0"
#750000
1#
1T
b0 I
b0 v
b0 {
b0 }
b101 .
b101 5
b101 6
b101 D
b101 `
b101 :
b1 H
b1 Z
b1 b
b0 U
b0 f
b0 y
b0 V
b0 a
b0 e
b0 x
b0 d
b10 +
b10 3
b10 8
b10 S
0*
b11110 s
b1 J
b1 \
b1 g
b1 u
b1001 r
b11 K
b11 c
b11 t
b1000 q
b100100 N
b100100 m
b100100 o
b100101000010111100110011 Q
b100101000010111100110011 i
b100101000010111100110011 ~
b100100 M
b100100 ^
b100100 k
b100100 z
b100000 L
b100000 W
b100000 l
b100000 O
b100000 Y
b100000 _
b100000 j
b100000 n
b100000 p
1"
#800000
0"
#850000
0#
0T
b1 I
b1 v
b1 {
b1 }
b1 V
b1 a
b1 e
b1 x
b1 d
b11 H
b11 Z
b11 b
b11111 s
b11 J
b11 \
b11 g
b11 u
b1000 r
b1 K
b1 c
b1 t
b1001 q
b101000 N
b101000 m
b101000 o
b100001001010111110110011 Q
b100001001010111110110011 i
b100001001010111110110011 ~
b101000 M
b101000 ^
b101000 k
b101000 z
b100100 L
b100100 W
b100100 l
b100100 O
b100100 Y
b100100 _
b100100 j
b100100 n
b100100 p
1"
#900000
0"
#950000
b11111111111111111111111111111110 H
b11111111111111111111111111111110 Z
b11111111111111111111111111111110 b
b11111111111111111111111111111110 J
b11111111111111111111111111111110 \
b11111111111111111111111111111110 g
b11111111111111111111111111111110 u
b11101 r
b101100 N
b101100 m
b101100 o
b1110101001010111110110011 Q
b1110101001010111110110011 i
b1110101001010111110110011 ~
b101100 M
b101100 ^
b101100 k
b101100 z
b101000 L
b101000 W
b101000 l
b101000 O
b101000 Y
b101000 _
b101000 j
b101000 n
b101000 p
1"
#1000000
0"
#1050000
0#
0T
b1 I
b1 v
b1 {
b1 }
b1 R
b1 X
b1 [
b1 !"
b1 #"
b1 V
b1 a
b1 e
b1 x
b1 d
07
1-
b0 )
b0 2
b0 <
b0 F
b0 ""
b0 @
b0 .
b0 5
b0 6
b0 D
b0 `
b0 :
b1 H
b1 Z
b1 b
b10011 '
b10011 1
b10011 >
b10011 P
b0 +
b0 3
b0 8
b0 S
b101 s
b0 J
b0 \
b0 g
b0 u
b1 r
b0 K
b0 c
b0 t
b0 q
b110000 N
b110000 m
b110000 o
b100000000001010010011 Q
b100000000001010010011 i
b100000000001010010011 ~
b110000 M
b110000 ^
b110000 k
b110000 z
b101101 L
b101101 W
b101101 l
b101100 O
b101100 Y
b101100 _
b101100 j
b101100 n
b101100 p
1"
#1100000
0"
#1150000
1#
1T
b0 I
b0 v
b0 {
b0 }
b0 V
b0 a
b0 e
b0 x
b0 d
b0 H
b0 Z
b0 b
b0 R
b0 X
b0 [
b0 !"
b0 #"
b110 s
b0 r
b110100 N
b110100 m
b110100 o
b1100010011 Q
b1100010011 i
b1100010011 ~
b110100 M
b110100 ^
b110100 k
b110100 z
b110000 L
b110000 W
b110000 l
b110000 O
b110000 Y
b110000 _
b110000 j
b110000 n
b110000 p
1"
#1200000
0"
#1250000
0&
0#
0T
bx U
bx f
bx y
b1 .
b1 5
b1 6
b1 D
b1 `
b1 :
b0xxxxxxxxxxxxxxxxxxxxxxxxxxxxxxx I
b0xxxxxxxxxxxxxxxxxxxxxxxxxxxxxxx v
b0xxxxxxxxxxxxxxxxxxxxxxxxxxxxxxx {
b0xxxxxxxxxxxxxxxxxxxxxxxxxxxxxxx }
b10000 H
b10000 Z
b10000 b
17
b1 4
b1 9
b1 ;
b1 ?
1,
b0x $
b0x 0
b0x =
b0x C
b0x G
b0x |
0-
b10 )
b10 2
b10 <
b10 F
b10 ""
b10 @
0%
0B
b11111111111111111111111111110001 V
b11111111111111111111111111110001 a
b11111111111111111111111111110001 e
b11111111111111111111111111110001 x
b11111111111111111111111111110001 d
b10000 R
b10000 X
b10000 [
b10000 !"
b10000 #"
b1100011 '
b1100011 1
b1100011 >
b1100011 P
b10000 s
b10000 J
b10000 \
b10000 g
b10000 u
b10010 r
b1 K
b1 c
b1 t
b101 q
b111000 N
b111000 m
b111000 o
b1001000101000100001100011 Q
b1001000101000100001100011 i
b1001000101000100001100011 ~
b111000 M
b111000 ^
b111000 k
b111000 z
b1000100 L
b1000100 W
b1000100 l
b110100 O
b110100 Y
b110100 _
b110100 j
b110100 n
b110100 p
1"
#1300000
0"
#1350000
0#
0T
b0 .
b0 5
b0 6
b0 D
b0 `
b0 :
b10 I
b10 v
b10 {
b10 }
b0 U
b0 f
b0 y
b10 V
b10 a
b10 e
b10 x
b10 d
b10 4
b10 9
b10 ;
b10 ?
0,
b0 $
b0 0
b0 =
b0 C
b0 G
b0 |
bx )
bx 2
bx <
bx F
bx ""
bx @
1%
1B
b1 H
b1 Z
b1 b
b0 R
b0 X
b0 [
b0 !"
b0 #"
b110011 '
b110011 1
b110011 >
b110011 P
b101 s
b1 J
b1 \
b1 g
b1 u
b101 r
b111100 N
b111100 m
b111100 o
b10100101000001010110011 Q
b10100101000001010110011 i
b10100101000001010110011 ~
b111100 M
b111100 ^
b111100 k
b111100 z
b111000 L
b111000 W
b111000 l
b111000 O
b111000 Y
b111000 _
b111000 j
b111000 n
b111000 p
1"
#1400000
0"
#1450000
0#
0T
b1 R
b1 X
b1 [
b1 !"
b1 #"
07
1-
b0 )
b0 2
b0 <
b0 F
b0 ""
b0 @
b10011 '
b10011 1
b10011 >
b10011 P
b110 s
b1 r
b110 q
b1000000 N
b1000000 m
b1000000 o
b1 I
b1 v
b1 {
b1 }
b1 V
b1 a
b1 e
b1 x
b1 d
b1 H
b1 Z
b1 b
b100110000001100010011 Q
b100110000001100010011 i
b100110000001100010011 ~
b1000000 M
b1000000 ^
b1000000 k
b1000000 z
b111101 L
b111101 W
b111101 l
b111100 O
b111100 Y
b111100 _
b111100 j
b111100 n
b111100 p
b0 K
b0 c
b0 t
b0 J
b0 \
b0 g
b0 u
1"
#1500000
0"
#1550000
x#
xT
1&
bx U
bx f
bx y
b1000100 I
b1000100 v
b1000100 {
b1000100 }
bx0x00 H
bx0x00 Z
bx0x00 b
17
bx 4
bx 9
bx ;
bx ?
b10 $
b10 0
b10 =
b10 C
b10 G
b10 |
x-
b11 )
b11 2
b11 <
b11 F
b11 ""
b11 @
0%
0B
bx .
bx 5
bx 6
bx D
bx `
bx :
bx V
bx a
bx e
bx x
bx d
b11111111111111111111111111110100 R
b11111111111111111111111111110100 X
b11111111111111111111111111110100 [
b11111111111111111111111111110100 !"
b11111111111111111111111111110100 #"
b1101111 '
b1101111 1
b1101111 >
b1101111 P
b111 +
b111 3
b111 8
b111 S
1*
b0 s
b10101 r
b11111 q
b110100 N
b110100 m
b110100 o
b1 K
b1 c
b1 t
b11111111010111111111000001101111 Q
b11111111010111111111000001101111 i
b11111111010111111111000001101111 ~
b1000100 M
b1000100 ^
b1000100 k
b1000100 z
b110100 L
b110100 W
b110100 l
b1000000 O
b1000000 Y
b1000000 _
b1000000 j
b1000000 n
b1000000 p
1"
#1600000
0"
#1650000
0#
0T
0&
b11111111111111111111111111110010 V
b11111111111111111111111111110010 a
b11111111111111111111111111110010 e
b11111111111111111111111111110010 x
b11111111111111111111111111110010 d
b1 .
b1 5
b1 6
b1 D
b1 `
b1 :
b1 4
b1 9
b1 ;
b1 ?
1,
b0x $
b0x 0
b0x =
b0x C
b0x G
b0x |
0-
b10 )
b10 2
b10 <
b10 F
b10 ""
b10 @
b10000 H
b10000 Z
b10000 b
b10000 R
b10000 X
b10000 [
b10000 !"
b10000 #"
b1100011 '
b1100011 1
b1100011 >
b1100011 P
b0 +
b0 3
b0 8
b0 S
0*
b10000 s
b10000 J
b10000 \
b10000 g
b10000 u
b10010 r
b10 K
b10 c
b10 t
b101 q
b0xxxxxxxxxxxxxxxxxxxxxxxxxxxxxxx I
b0xxxxxxxxxxxxxxxxxxxxxxxxxxxxxxx v
b0xxxxxxxxxxxxxxxxxxxxxxxxxxxxxxx {
b0xxxxxxxxxxxxxxxxxxxxxxxxxxxxxxx }
b111000 N
b111000 m
b111000 o
b1001000101000100001100011 Q
b1001000101000100001100011 i
b1001000101000100001100011 ~
b111000 M
b111000 ^
b111000 k
b111000 z
b1000100 L
b1000100 W
b1000100 l
b110100 O
b110100 Y
b110100 _
b110100 j
b110100 n
b110100 p
1"
#1700000
0"
#1750000
0#
0T
b0 .
b0 5
b0 6
b0 D
b0 `
b0 :
b100 I
b100 v
b100 {
b100 }
b0 U
b0 f
b0 y
b100 V
b100 a
b100 e
b100 x
b100 d
b10 4
b10 9
b10 ;
b10 ?
0,
b0 $
b0 0
b0 =
b0 C
b0 G
b0 |
bx )
bx 2
bx <
bx F
bx ""
bx @
1%
1B
b10 H
b10 Z
b10 b
b0 R
b0 X
b0 [
b0 !"
b0 #"
b110011 '
b110011 1
b110011 >
b110011 P
b101 s
b10 J
b10 \
b10 g
b10 u
b101 r
b111100 N
b111100 m
b111100 o
b10100101000001010110011 Q
b10100101000001010110011 i
b10100101000001010110011 ~
b111100 M
b111100 ^
b111100 k
b111100 z
b111000 L
b111000 W
b111000 l
b111000 O
b111000 Y
b111000 _
b111000 j
b111000 n
b111000 p
1"
#1800000
0"
#1850000
b1 R
b1 X
b1 [
b1 !"
b1 #"
07
1-
b0 )
b0 2
b0 <
b0 F
b0 ""
b0 @
b10011 '
b10011 1
b10011 >
b10011 P
b110 s
b1 r
b110 q
b1000000 N
b1000000 m
b1000000 o
b10 I
b10 v
b10 {
b10 }
b10 V
b10 a
b10 e
b10 x
b10 d
b1 H
b1 Z
b1 b
b100110000001100010011 Q
b100110000001100010011 i
b100110000001100010011 ~
b1000000 M
b1000000 ^
b1000000 k
b1000000 z
b111101 L
b111101 W
b111101 l
b111100 O
b111100 Y
b111100 _
b111100 j
b111100 n
b111100 p
b1 K
b1 c
b1 t
b0 J
b0 \
b0 g
b0 u
1"
#1900000
0"
#1950000
x#
xT
1&
b1000100 I
b1000100 v
b1000100 {
b1000100 }
bx U
bx f
bx y
bx V
bx a
bx e
bx x
bx d
bx0x00 H
bx0x00 Z
bx0x00 b
17
bx 4
bx 9
bx ;
bx ?
b10 $
b10 0
b10 =
b10 C
b10 G
b10 |
x-
b11 )
b11 2
b11 <
b11 F
b11 ""
b11 @
0%
0B
bx .
bx 5
bx 6
bx D
bx `
bx :
b11111111111111111111111111110100 R
b11111111111111111111111111110100 X
b11111111111111111111111111110100 [
b11111111111111111111111111110100 !"
b11111111111111111111111111110100 #"
b1101111 '
b1101111 1
b1101111 >
b1101111 P
b111 +
b111 3
b111 8
b111 S
1*
b0 s
b10101 r
b11111 q
b110100 N
b110100 m
b110100 o
b1 K
b1 c
b1 t
b11111111010111111111000001101111 Q
b11111111010111111111000001101111 i
b11111111010111111111000001101111 ~
b1000100 M
b1000100 ^
b1000100 k
b1000100 z
b110100 L
b110100 W
b110100 l
b1000000 O
b1000000 Y
b1000000 _
b1000000 j
b1000000 n
b1000000 p
1"
#2000000
0"
#2050000
0#
0T
0&
b11111111111111111111111111110100 V
b11111111111111111111111111110100 a
b11111111111111111111111111110100 e
b11111111111111111111111111110100 x
b11111111111111111111111111110100 d
b1 .
b1 5
b1 6
b1 D
b1 `
b1 :
b1 4
b1 9
b1 ;
b1 ?
1,
b0x $
b0x 0
b0x =
b0x C
b0x G
b0x |
0-
b10 )
b10 2
b10 <
b10 F
b10 ""
b10 @
b10000 H
b10000 Z
b10000 b
b10000 R
b10000 X
b10000 [
b10000 !"
b10000 #"
b1100011 '
b1100011 1
b1100011 >
b1100011 P
b0 +
b0 3
b0 8
b0 S
0*
b10000 s
b10000 J
b10000 \
b10000 g
b10000 u
b10010 r
b100 K
b100 c
b100 t
b101 q
b0xxxxxxxxxxxxxxxxxxxxxxxxxxxxxxx I
b0xxxxxxxxxxxxxxxxxxxxxxxxxxxxxxx v
b0xxxxxxxxxxxxxxxxxxxxxxxxxxxxxxx {
b0xxxxxxxxxxxxxxxxxxxxxxxxxxxxxxx }
b111000 N
b111000 m
b111000 o
b1001000101000100001100011 Q
b1001000101000100001100011 i
b1001000101000100001100011 ~
b111000 M
b111000 ^
b111000 k
b111000 z
b1000100 L
b1000100 W
b1000100 l
b110100 O
b110100 Y
b110100 _
b110100 j
b110100 n
b110100 p
1"
#2100000
0"
#2150000
0#
0T
b0 .
b0 5
b0 6
b0 D
b0 `
b0 :
b1000 I
b1000 v
b1000 {
b1000 }
b0 U
b0 f
b0 y
b1000 V
b1000 a
b1000 e
b1000 x
b1000 d
b10 4
b10 9
b10 ;
b10 ?
0,
b0 $
b0 0
b0 =
b0 C
b0 G
b0 |
bx )
bx 2
bx <
bx F
bx ""
bx @
1%
1B
b100 H
b100 Z
b100 b
b0 R
b0 X
b0 [
b0 !"
b0 #"
b110011 '
b110011 1
b110011 >
b110011 P
b101 s
b100 J
b100 \
b100 g
b100 u
b101 r
b111100 N
b111100 m
b111100 o
b10100101000001010110011 Q
b10100101000001010110011 i
b10100101000001010110011 ~
b111100 M
b111100 ^
b111100 k
b111100 z
b111000 L
b111000 W
b111000 l
b111000 O
b111000 Y
b111000 _
b111000 j
b111000 n
b111000 p
1"
#2200000
0"
#2250000
b1 R
b1 X
b1 [
b1 !"
b1 #"
07
1-
b0 )
b0 2
b0 <
b0 F
b0 ""
b0 @
b10011 '
b10011 1
b10011 >
b10011 P
b110 s
b1 r
b110 q
b1000000 N
b1000000 m
b1000000 o
b11 I
b11 v
b11 {
b11 }
b11 V
b11 a
b11 e
b11 x
b11 d
b1 H
b1 Z
b1 b
b100110000001100010011 Q
b100110000001100010011 i
b100110000001100010011 ~
b1000000 M
b1000000 ^
b1000000 k
b1000000 z
b111101 L
b111101 W
b111101 l
b111100 O
b111100 Y
b111100 _
b111100 j
b111100 n
b111100 p
b10 K
b10 c
b10 t
b0 J
b0 \
b0 g
b0 u
1"
#2300000
0"
#2350000
x#
xT
1&
bx U
bx f
bx y
b1000100 I
b1000100 v
b1000100 {
b1000100 }
bx0x00 H
bx0x00 Z
bx0x00 b
17
bx 4
bx 9
bx ;
bx ?
b10 $
b10 0
b10 =
b10 C
b10 G
b10 |
x-
b11 )
b11 2
b11 <
b11 F
b11 ""
b11 @
0%
0B
bx .
bx 5
bx 6
bx D
bx `
bx :
bx V
bx a
bx e
bx x
bx d
b11111111111111111111111111110100 R
b11111111111111111111111111110100 X
b11111111111111111111111111110100 [
b11111111111111111111111111110100 !"
b11111111111111111111111111110100 #"
b1101111 '
b1101111 1
b1101111 >
b1101111 P
b111 +
b111 3
b111 8
b111 S
1*
b0 s
b10101 r
b11111 q
b110100 N
b110100 m
b110100 o
b1 K
b1 c
b1 t
b11111111010111111111000001101111 Q
b11111111010111111111000001101111 i
b11111111010111111111000001101111 ~
b1000100 M
b1000100 ^
b1000100 k
b1000100 z
b110100 L
b110100 W
b110100 l
b1000000 O
b1000000 Y
b1000000 _
b1000000 j
b1000000 n
b1000000 p
1"
#2400000
0"
#2450000
0#
0T
0&
b11111111111111111111111111111000 V
b11111111111111111111111111111000 a
b11111111111111111111111111111000 e
b11111111111111111111111111111000 x
b11111111111111111111111111111000 d
b1 .
b1 5
b1 6
b1 D
b1 `
b1 :
b1 4
b1 9
b1 ;
b1 ?
1,
b0x $
b0x 0
b0x =
b0x C
b0x G
b0x |
0-
b10 )
b10 2
b10 <
b10 F
b10 ""
b10 @
b10000 H
b10000 Z
b10000 b
b10000 R
b10000 X
b10000 [
b10000 !"
b10000 #"
b1100011 '
b1100011 1
b1100011 >
b1100011 P
b0 +
b0 3
b0 8
b0 S
0*
b10000 s
b10000 J
b10000 \
b10000 g
b10000 u
b10010 r
b1000 K
b1000 c
b1000 t
b101 q
b0xxxxxxxxxxxxxxxxxxxxxxxxxxxxxxx I
b0xxxxxxxxxxxxxxxxxxxxxxxxxxxxxxx v
b0xxxxxxxxxxxxxxxxxxxxxxxxxxxxxxx {
b0xxxxxxxxxxxxxxxxxxxxxxxxxxxxxxx }
b111000 N
b111000 m
b111000 o
b1001000101000100001100011 Q
b1001000101000100001100011 i
b1001000101000100001100011 ~
b111000 M
b111000 ^
b111000 k
b111000 z
b1000100 L
b1000100 W
b1000100 l
b110100 O
b110100 Y
b110100 _
b110100 j
b110100 n
b110100 p
1"
#2500000
0"
#2550000
0#
0T
b0 .
b0 5
b0 6
b0 D
b0 `
b0 :
b10000 I
b10000 v
b10000 {
b10000 }
b0 U
b0 f
b0 y
b10000 V
b10000 a
b10000 e
b10000 x
b10000 d
b10 4
b10 9
b10 ;
b10 ?
0,
b0 $
b0 0
b0 =
b0 C
b0 G
b0 |
bx )
bx 2
bx <
bx F
bx ""
bx @
1%
1B
b1000 H
b1000 Z
b1000 b
b0 R
b0 X
b0 [
b0 !"
b0 #"
b110011 '
b110011 1
b110011 >
b110011 P
b101 s
b1000 J
b1000 \
b1000 g
b1000 u
b101 r
b111100 N
b111100 m
b111100 o
b10100101000001010110011 Q
b10100101000001010110011 i
b10100101000001010110011 ~
b111100 M
b111100 ^
b111100 k
b111100 z
b111000 L
b111000 W
b111000 l
b111000 O
b111000 Y
b111000 _
b111000 j
b111000 n
b111000 p
1"
#2600000
0"
#2650000
b1 R
b1 X
b1 [
b1 !"
b1 #"
07
1-
b0 )
b0 2
b0 <
b0 F
b0 ""
b0 @
b10011 '
b10011 1
b10011 >
b10011 P
b110 s
b1 r
b110 q
b1000000 N
b1000000 m
b1000000 o
b100 I
b100 v
b100 {
b100 }
b0 U
b0 f
b0 y
b100 V
b100 a
b100 e
b100 x
b100 d
b1 H
b1 Z
b1 b
b100110000001100010011 Q
b100110000001100010011 i
b100110000001100010011 ~
b1000000 M
b1000000 ^
b1000000 k
b1000000 z
b111101 L
b111101 W
b111101 l
b111100 O
b111100 Y
b111100 _
b111100 j
b111100 n
b111100 p
b11 K
b11 c
b11 t
b0 J
b0 \
b0 g
b0 u
1"
#2700000
0"
#2750000
x#
xT
1&
bx U
bx f
bx y
b1000100 I
b1000100 v
b1000100 {
b1000100 }
bx0x00 H
bx0x00 Z
bx0x00 b
17
bx 4
bx 9
bx ;
bx ?
b10 $
b10 0
b10 =
b10 C
b10 G
b10 |
x-
b11 )
b11 2
b11 <
b11 F
b11 ""
b11 @
0%
0B
bx .
bx 5
bx 6
bx D
bx `
bx :
bx V
bx a
bx e
bx x
bx d
b11111111111111111111111111110100 R
b11111111111111111111111111110100 X
b11111111111111111111111111110100 [
b11111111111111111111111111110100 !"
b11111111111111111111111111110100 #"
b1101111 '
b1101111 1
b1101111 >
b1101111 P
b111 +
b111 3
b111 8
b111 S
1*
b0 s
b10101 r
b11111 q
b110100 N
b110100 m
b110100 o
b1 K
b1 c
b1 t
b11111111010111111111000001101111 Q
b11111111010111111111000001101111 i
b11111111010111111111000001101111 ~
b1000100 M
b1000100 ^
b1000100 k
b1000100 z
b110100 L
b110100 W
b110100 l
b1000000 O
b1000000 Y
b1000000 _
b1000000 j
b1000000 n
b1000000 p
1"
#2800000
0"
